C:\Users\sningego\Downloads\Rfqnet\src\main\java\com\rfqnet\Rfqnet_page_object\BaseClass.java
C:\Users\sningego\Downloads\Rfqnet\src\main\java\com\rfqnet\Rfqnet_page_object\HomePage.java
C:\Users\sningego\Downloads\Rfqnet\src\main\java\com\rfqnet\Rfqnet_page_object\VendorPage.java
C:\Users\sningego\Downloads\Rfqnet\src\main\java\com\rfqnet\Rfqnet_page_object\BuyerAccount.java
C:\Users\sningego\Downloads\Rfqnet\src\main\java\com\rfqnet\Rfqnet_page_object\CustomerLogin.java
